TS Zillow Team Project (Prophet)
…
Cross-validation

Prophet includes functionality for time series cross validation to measure forecast error using historical data. This is done by selecting cutoff points in the history, and for each of them fitting the model using data only up to that cutoff point. We can then compare the forecasted values to the actual values.

This cross validation procedure can be done automatically for a range of historical cutoffs using the cross_validation function. We specify the forecast horizon (horizon), and then optionally the size of the initial training period (initial) and the spacing between cutoff dates (period). By default, the initial training period is set to three times the horizon, and cutoffs are made every half a horizon.

The output of cross_validation is a dataframe with the true values y and the out-of-sample forecast values yhat, at each simulated forecast date and for each cutoff date. In particular, a forecast is made for every observed point between cutoff and cutoff + horizon. This dataframe can then be used to compute error measures of yhat vs.y.

# Cross-validate the model
model1_cv <- cross_validation(model1, horizon = 365/12, units = "days", period = 365/12, initial = 365/12 * 12 * 3)

# Print
model1_cv

## # A tibble: 114 x 6
##         y ds                     yhat yhat_lower yhat_upper cutoff             
##     <dbl> <dttm>                <dbl>      <dbl>      <dbl> <dttm>             
##  1 171500 2011-03-31 00:00:00 192112.    191562.    192690. 2011-03-04 12:00:00
##  2 185000 2011-04-30 00:00:00 188287.    186890.    189575. 2011-04-03 22:00:00
##  3 184000 2011-05-31 00:00:00 171961.    170585.    173344. 2011-05-04 08:00:00
##  4 195000 2011-06-30 00:00:00 207175.    205524.    208882. 2011-06-03 18:00:00
##  5 200000 2011-07-31 00:00:00 167641.    166045.    169410. 2011-07-04 04:00:00
##  6 195000 2011-08-31 00:00:00 204865.    201655.    208326. 2011-08-03 14:00:00
##  7 175000 2011-09-30 00:00:00 174164.    170646.    177390. 2011-09-03 00:00:00
##  8 170000 2011-10-31 00:00:00 182785.    179493.    185985. 2011-10-03 10:00:00
##  9 163000 2011-11-30 00:00:00 165827.    162471.    169194. 2011-11-02 20:00:00
## 10 160000 2011-12-31 00:00:00 168821.    165517.    172136. 2011-12-03 06:00:00
## # ... with 104 more rows
…
Cross-validation

Prophet includes functionality for time series cross validation to measure forecast error using historical data. This is done by selecting cutoff points in the history, and for each of them fitting the model using data only up to that cutoff point. We can then compare the forecasted values to the actual values.

This cross validation procedure can be done automatically for a range of historical cutoffs using the cross_validation function. We specify the forecast horizon (horizon), and then optionally the size of the initial training period (initial) and the spacing between cutoff dates (period). By default, the initial training period is set to three times the horizon, and cutoffs are made every half a horizon.

The output of cross_validation is a dataframe with the true values y and the out-of-sample forecast values yhat, at each simulated forecast date and for each cutoff date. In particular, a forecast is made for every observed point between cutoff and cutoff + horizon. This dataframe can then be used to compute error measures of yhat vs.y.

# Cross-validate the model
model2_cv <- cross_validation(model2, horizon = 365/12, units = "days", period = 365/12, initial = 365/12 * 12 * 3)

# Print
model2_cv

## # A tibble: 53 x 6
##         y ds                     yhat yhat_lower yhat_upper cutoff             
##     <dbl> <dttm>                <dbl>      <dbl>      <dbl> <dttm>             
##  1 223000 2016-04-30 00:00:00 216234.    213399.    218803. 2016-04-01 22:00:00
##  2 227750 2016-05-31 00:00:00 228135.    225877.    230323. 2016-05-02 08:00:00
##  3 232000 2016-06-30 00:00:00 262688.    260709.    264871. 2016-06-01 18:00:00
##  4 230000 2016-07-31 00:00:00 244280.    240480.    248097. 2016-07-02 04:00:00
##  5 223000 2016-08-31 00:00:00 236233.    232558.    240040. 2016-08-01 14:00:00
##  6 210000 2016-09-30 00:00:00 225487.    221350.    230026. 2016-09-01 00:00:00
##  7 210000 2016-10-31 00:00:00 204449.    200067.    208964. 2016-10-01 10:00:00
##  8 207500 2016-11-30 00:00:00 206837.    202539.    211220. 2016-10-31 20:00:00
##  9 208000 2016-12-31 00:00:00 198002.    193684.    202418. 2016-12-01 06:00:00
## 10 205500 2017-01-31 00:00:00 187383.    182781.    191850. 2016-12-31 16:00:00
## # ... with 43 more rows
…
